^C:\USERS\ADMINISTRATOR.EB2029-09-W\DOCUMENTS\SENIOR PROJECT\IMAGEANALYZER\IMAGEANALYZER\DEBUG\IMAGEANALYZER.OBJ
C:\OPENCV-2.4.9\OPENCV\BUILD\X86\VC11\LIB\OPENCV_CALIB3D249D.LIB
C:\OPENCV-2.4.9\OPENCV\BUILD\X86\VC11\LIB\OPENCV_CONTRIB249D.LIB
C:\OPENCV-2.4.9\OPENCV\BUILD\X86\VC11\LIB\OPENCV_CORE249D.LIB
C:\OPENCV-2.4.9\OPENCV\BUILD\X86\VC11\LIB\OPENCV_FEATURES2D249D.LIB
C:\OPENCV-2.4.9\OPENCV\BUILD\X86\VC11\LIB\OPENCV_FLANN249D.LIB
C:\OPENCV-2.4.9\OPENCV\BUILD\X86\VC11\LIB\OPENCV_GPU249D.LIB
C:\OPENCV-2.4.9\OPENCV\BUILD\X86\VC11\LIB\OPENCV_HIGHGUI249D.LIB
C:\OPENCV-2.4.9\OPENCV\BUILD\X86\VC11\LIB\OPENCV_IMGPROC249D.LIB
C:\OPENCV-2.4.9\OPENCV\BUILD\X86\VC11\LIB\OPENCV_LEGACY249D.LIB
C:\OPENCV-2.4.9\OPENCV\BUILD\X86\VC11\LIB\OPENCV_ML249D.LIB
C:\OPENCV-2.4.9\OPENCV\BUILD\X86\VC11\LIB\OPENCV_NONFREE249D.LIB
C:\OPENCV-2.4.9\OPENCV\BUILD\X86\VC11\LIB\OPENCV_OBJDETECT249D.LIB
C:\OPENCV-2.4.9\OPENCV\BUILD\X86\VC11\LIB\OPENCV_OCL249D.LIB
C:\OPENCV-2.4.9\OPENCV\BUILD\X86\VC11\LIB\OPENCV_PHOTO249D.LIB
C:\OPENCV-2.4.9\OPENCV\BUILD\X86\VC11\LIB\OPENCV_STITCHING249D.LIB
C:\OPENCV-2.4.9\OPENCV\BUILD\X86\VC11\LIB\OPENCV_SUPERRES249D.LIB
C:\OPENCV-2.4.9\OPENCV\BUILD\X86\VC11\LIB\OPENCV_TS249D.LIB
C:\OPENCV-2.4.9\OPENCV\BUILD\X86\VC11\LIB\OPENCV_VIDEO249D.LIB
C:\OPENCV-2.4.9\OPENCV\BUILD\X86\VC11\LIB\OPENCV_VIDEOSTAB249D.LIB
C:\PROGRAM FILES\WINDOWS KITS\8.0\LIB\WIN8\UM\X86\KERNEL32.LIB
C:\PROGRAM FILES\WINDOWS KITS\8.0\LIB\WIN8\UM\X86\USER32.LIB
C:\PROGRAM FILES\WINDOWS KITS\8.0\LIB\WIN8\UM\X86\GDI32.LIB
C:\PROGRAM FILES\WINDOWS KITS\8.0\LIB\WIN8\UM\X86\WINSPOOL.LIB
C:\PROGRAM FILES\WINDOWS KITS\8.0\LIB\WIN8\UM\X86\COMDLG32.LIB
C:\PROGRAM FILES\WINDOWS KITS\8.0\LIB\WIN8\UM\X86\ADVAPI32.LIB
C:\PROGRAM FILES\WINDOWS KITS\8.0\LIB\WIN8\UM\X86\SHELL32.LIB
C:\PROGRAM FILES\WINDOWS KITS\8.0\LIB\WIN8\UM\X86\OLE32.LIB
C:\PROGRAM FILES\WINDOWS KITS\8.0\LIB\WIN8\UM\X86\OLEAUT32.LIB
C:\PROGRAM FILES\WINDOWS KITS\8.0\LIB\WIN8\UM\X86\UUID.LIB
C:\PROGRAM FILES\WINDOWS KITS\8.0\LIB\WIN8\UM\X86\ODBC32.LIB
C:\PROGRAM FILES\WINDOWS KITS\8.0\LIB\WIN8\UM\X86\ODBCCP32.LIB
C:\USERS\ADMINISTRATOR.EB2029-09-W\DOCUMENTS\SENIOR PROJECT\IMAGEANALYZER\IMAGEANALYZER\DEBUG\IMAGEANALYZER.OBJ
C:\WINDOWS\SYSTEM32\TZRES.DLL
C:\WINDOWS\GLOBALIZATION\SORTING\SORTDEFAULT.NLS
C:\PROGRAM FILES\MICROSOFT VISUAL STUDIO 11.0\VC\LIB\MSVCPRTD.LIB
C:\PROGRAM FILES\MICROSOFT VISUAL STUDIO 11.0\VC\LIB\MSVCRTD.LIB
C:\PROGRAM FILES\MICROSOFT VISUAL STUDIO 11.0\VC\LIB\OLDNAMES.LIB
C:\PROGRAM FILES\MICROSOFT VISUAL STUDIO 11.0\VC\BIN\LINK.EXE
C:\WINDOWS\SYSTEM32\RSAENH.DLL
C:\PROGRAM FILES\WINDOWS KITS\8.0\BIN\X86\RC.EXE
C:\PROGRAM FILES\MICROSOFT VISUAL STUDIO 11.0\VC\BIN\CVTRES.EXE
