^C:\USERS\ADMINISTRATOR.EB2029-09-W\DOCUMENTS\SENIOR PROJECT\IMAGEANALYZER\IMAGEANALYZER\RELEASE\IMAGEANALYZER.OBJ|C:\USERS\ADMINISTRATOR.EB2029-09-W\DOCUMENTS\SENIOR PROJECT\IMAGEANALYZER\IMAGEANALYZER\RELEASE\IMAGEANALYZER.RES
C:\OPENCV-2.4.9\OPENCV\BUILD\X86\VC11\LIB\OPENCV_CALIB3D249.LIB
C:\OPENCV-2.4.9\OPENCV\BUILD\X86\VC11\LIB\OPENCV_CONTRIB249.LIB
C:\OPENCV-2.4.9\OPENCV\BUILD\X86\VC11\LIB\OPENCV_CORE249.LIB
C:\OPENCV-2.4.9\OPENCV\BUILD\X86\VC11\LIB\OPENCV_FEATURES2D249.LIB
C:\OPENCV-2.4.9\OPENCV\BUILD\X86\VC11\LIB\OPENCV_FLANN249.LIB
C:\OPENCV-2.4.9\OPENCV\BUILD\X86\VC11\LIB\OPENCV_GPU249.LIB
C:\OPENCV-2.4.9\OPENCV\BUILD\X86\VC11\LIB\OPENCV_HIGHGUI249.LIB
C:\OPENCV-2.4.9\OPENCV\BUILD\X86\VC11\LIB\OPENCV_IMGPROC249.LIB
C:\OPENCV-2.4.9\OPENCV\BUILD\X86\VC11\LIB\OPENCV_LEGACY249.LIB
C:\OPENCV-2.4.9\OPENCV\BUILD\X86\VC11\LIB\OPENCV_ML249.LIB
C:\OPENCV-2.4.9\OPENCV\BUILD\X86\VC11\LIB\OPENCV_NONFREE249.LIB
C:\OPENCV-2.4.9\OPENCV\BUILD\X86\VC11\LIB\OPENCV_OBJDETECT249.LIB
C:\OPENCV-2.4.9\OPENCV\BUILD\X86\VC11\LIB\OPENCV_OCL249.LIB
C:\OPENCV-2.4.9\OPENCV\BUILD\X86\VC11\LIB\OPENCV_PHOTO249.LIB
C:\OPENCV-2.4.9\OPENCV\BUILD\X86\VC11\LIB\OPENCV_STITCHING249.LIB
C:\OPENCV-2.4.9\OPENCV\BUILD\X86\VC11\LIB\OPENCV_SUPERRES249.LIB
C:\OPENCV-2.4.9\OPENCV\BUILD\X86\VC11\LIB\OPENCV_TS249.LIB
C:\OPENCV-2.4.9\OPENCV\BUILD\X86\VC11\LIB\OPENCV_VIDEO249.LIB
C:\OPENCV-2.4.9\OPENCV\BUILD\X86\VC11\LIB\OPENCV_VIDEOSTAB249.LIB
C:\PROGRAM FILES\WINDOWS KITS\8.0\LIB\WIN8\UM\X86\KERNEL32.LIB
C:\PROGRAM FILES\WINDOWS KITS\8.0\LIB\WIN8\UM\X86\USER32.LIB
C:\PROGRAM FILES\WINDOWS KITS\8.0\LIB\WIN8\UM\X86\GDI32.LIB
C:\PROGRAM FILES\WINDOWS KITS\8.0\LIB\WIN8\UM\X86\WINSPOOL.LIB
C:\PROGRAM FILES\WINDOWS KITS\8.0\LIB\WIN8\UM\X86\COMDLG32.LIB
C:\PROGRAM FILES\WINDOWS KITS\8.0\LIB\WIN8\UM\X86\ADVAPI32.LIB
C:\PROGRAM FILES\WINDOWS KITS\8.0\LIB\WIN8\UM\X86\SHELL32.LIB
C:\PROGRAM FILES\WINDOWS KITS\8.0\LIB\WIN8\UM\X86\OLE32.LIB
C:\PROGRAM FILES\WINDOWS KITS\8.0\LIB\WIN8\UM\X86\OLEAUT32.LIB
C:\PROGRAM FILES\WINDOWS KITS\8.0\LIB\WIN8\UM\X86\UUID.LIB
C:\PROGRAM FILES\WINDOWS KITS\8.0\LIB\WIN8\UM\X86\ODBC32.LIB
C:\PROGRAM FILES\WINDOWS KITS\8.0\LIB\WIN8\UM\X86\ODBCCP32.LIB
C:\USERS\ADMINISTRATOR.EB2029-09-W\DOCUMENTS\SENIOR PROJECT\IMAGEANALYZER\IMAGEANALYZER\RELEASE\IMAGEANALYZER.RES
C:\USERS\ADMINISTRATOR.EB2029-09-W\DOCUMENTS\SENIOR PROJECT\IMAGEANALYZER\IMAGEANALYZER\RELEASE\IMAGEANALYZER.OBJ
C:\WINDOWS\GLOBALIZATION\SORTING\SORTDEFAULT.NLS
C:\PROGRAM FILES\MICROSOFT VISUAL STUDIO 11.0\VC\BIN\C2.DLL
C:\PROGRAM FILES\MICROSOFT VISUAL STUDIO 11.0\VC\LIB\MSVCPRT.LIB
C:\PROGRAM FILES\MICROSOFT VISUAL STUDIO 11.0\VC\LIB\MSVCRT.LIB
C:\PROGRAM FILES\MICROSOFT VISUAL STUDIO 11.0\VC\LIB\OLDNAMES.LIB
C:\PROGRAM FILES\MICROSOFT VISUAL STUDIO 11.0\VC\BIN\1033\LINKUI.DLL
C:\PROGRAM FILES\WINDOWS KITS\8.0\BIN\X86\RC.EXE
C:\PROGRAM FILES\MICROSOFT VISUAL STUDIO 11.0\VC\BIN\CVTRES.EXE
C:\WINDOWS\SYSTEM32\TZRES.DLL
C:\WINDOWS\SYSTEM32\RSAENH.DLL
