^C:\USERS\ADMINISTRATOR.EB2029-09-W\DOCUMENTS\SENIOR PROJECT\IMAGEANALYZER\IMAGEANALYZER\RELEASE\IMAGEANALYZER.OBJ
/OUT:"C:\USERS\ADMINISTRATOR.EB2029-09-W\DOCUMENTS\SENIOR PROJECT\IMAGEANALYZER\RELEASE\IMAGEANALYZER.EXE" /INCREMENTAL:NO /NOLOGO /LIBPATH:"C:\OpenCV-2.4.9\opencv\build\x86\vc11\lib" opencv_calib3d249.lib opencv_contrib249.lib opencv_core249.lib opencv_features2d249.lib opencv_flann249.lib opencv_gpu249.lib opencv_highgui249.lib opencv_imgproc249.lib opencv_legacy249.lib opencv_ml249.lib opencv_nonfree249.lib opencv_objdetect249.lib opencv_ocl249.lib opencv_photo249.lib opencv_stitching249.lib opencv_superres249.lib opencv_ts249.lib opencv_video249.lib opencv_videostab249.lib kernel32.lib user32.lib gdi32.lib winspool.lib comdlg32.lib advapi32.lib shell32.lib ole32.lib oleaut32.lib uuid.lib odbc32.lib odbccp32.lib /MANIFEST /MANIFESTUAC:"level='asInvoker' uiAccess='false'" /manifest:embed /DEBUG /PDB:"C:\USERS\ADMINISTRATOR.EB2029-09-W\DOCUMENTS\SENIOR PROJECT\IMAGEANALYZER\RELEASE\IMAGEANALYZER.PDB" /SUBSYSTEM:CONSOLE /OPT:REF /OPT:ICF /LTCG /TLBID:1 /DYNAMICBASE /NXCOMPAT /IMPLIB:"C:\USERS\ADMINISTRATOR.EB2029-09-W\DOCUMENTS\SENIOR PROJECT\IMAGEANALYZER\RELEASE\IMAGEANALYZER.LIB" /MACHINE:X86 /SAFESEH RELEASE\IMAGEANALYZER.OBJ
^C:\USERS\ADMINISTRATOR.EB2029-09-W\DOCUMENTS\SENIOR PROJECT\IMAGEANALYZER\IMAGEANALYZER\RELEASE\IMAGEANALYZER.OBJ|C:\USERS\ADMINISTRATOR.EB2029-09-W\DOCUMENTS\SENIOR PROJECT\IMAGEANALYZER\IMAGEANALYZER\RELEASE\IMAGEANALYZER.RES
/OUT:"C:\USERS\ADMINISTRATOR.EB2029-09-W\DOCUMENTS\SENIOR PROJECT\IMAGEANALYZER\RELEASE\IMAGEANALYZER.EXE" /INCREMENTAL:NO /NOLOGO /LIBPATH:"C:\OpenCV-2.4.9\opencv\build\x86\vc11\lib" opencv_calib3d249.lib opencv_contrib249.lib opencv_core249.lib opencv_features2d249.lib opencv_flann249.lib opencv_gpu249.lib opencv_highgui249.lib opencv_imgproc249.lib opencv_legacy249.lib opencv_ml249.lib opencv_nonfree249.lib opencv_objdetect249.lib opencv_ocl249.lib opencv_photo249.lib opencv_stitching249.lib opencv_superres249.lib opencv_ts249.lib opencv_video249.lib opencv_videostab249.lib kernel32.lib user32.lib gdi32.lib winspool.lib comdlg32.lib advapi32.lib shell32.lib ole32.lib oleaut32.lib uuid.lib odbc32.lib odbccp32.lib /MANIFEST /MANIFESTUAC:"level='asInvoker' uiAccess='false'" /manifest:embed /DEBUG /PDB:"C:\USERS\ADMINISTRATOR.EB2029-09-W\DOCUMENTS\SENIOR PROJECT\IMAGEANALYZER\RELEASE\IMAGEANALYZER.PDB" /SUBSYSTEM:CONSOLE /OPT:REF /OPT:ICF /LTCG /TLBID:1 /DYNAMICBASE /NXCOMPAT /IMPLIB:"C:\USERS\ADMINISTRATOR.EB2029-09-W\DOCUMENTS\SENIOR PROJECT\IMAGEANALYZER\RELEASE\IMAGEANALYZER.LIB" /MACHINE:X86 /SAFESEH RELEASE\IMAGEANALYZER.RESRELEASE\IMAGEANALYZER.OBJ
